<?xml version="1.0" encoding="UTF-8"?>
<svg width="6px" height="40px" viewBox="0 0 6 40" version="1.1" xmlns="http://www.w3.org/2000/svg" xmlns:xlink="http://www.w3.org/1999/xlink">
    <!-- Generator: Sketch 53.2 (72643) - https://sketchapp.com -->
    <title>ic_purple_list_front_line</title>
    <desc>Created with Sketch.</desc>
    <g id="ic_purple_list_front_line" stroke="none" stroke-width="1" fill="none" fill-rule="evenodd">
        <rect id="Mask" fill="#6F7A93" x="0" y="9" width="6" height="22" rx="3"></rect>
    </g>
</svg>